{
  "project_info": {
    "project_number": "322847676563",
    "firebase_url": "https://oxygo-265517.firebaseio.com",
    "project_id": "oxygo-265517",
    "storage_bucket": "oxygo-265517.appspot.com"
  },
  "client": [
    {
      "client_info": {
        "mobilesdk_app_id": "1:322847676563:android:def994324427bda0f75566",
        "android_client_info": {
          "package_name": "fr.oxygo.app"
        }
      },
      "oauth_client": [
        {
          "client_id": "322847676563-5ebegbiht8pgnftghch1adclm4uhb7sj.apps.googleusercontent.com",
          "client_type": 3
        }
      ],
      "api_key": [
        {
          "current_key": "AIzaSyACZDzy6yx7uWNNj7S_AlBtwUMT-Rd1qvs"
        }
      ],
      "services": {
        "appinvite_service": {
          "other_platform_oauth_client": [
            {
              "client_id": "322847676563-5ebegbiht8pgnftghch1adclm4uhb7sj.apps.googleusercontent.com",
              "client_type": 3
            }
          ]
        }
      }
    }
  ],
  "configuration_version": "1"
}